<?xml version="1.0" encoding="UTF-8" standalone="no"?>
<!-- Created with Inkscape (http://www.inkscape.org/) -->

<svg
   xmlns:dc="http://purl.org/dc/elements/1.1/"
   xmlns:cc="http://creativecommons.org/ns#"
   xmlns:rdf="http://www.w3.org/1999/02/22-rdf-syntax-ns#"
   xmlns:svg="http://www.w3.org/2000/svg"
   xmlns="http://www.w3.org/2000/svg"
   xmlns:sodipodi="http://sodipodi.sourceforge.net/DTD/sodipodi-0.dtd"
   xmlns:inkscape="http://www.inkscape.org/namespaces/inkscape"
   width="264.58334mm"
   height="264.58334mm"
   viewBox="0 0 264.58334 264.58334"
   version="1.1"
   id="svg1722"
   sodipodi:docname="slice.svg"
   inkscape:version="0.92.2 2405546, 2018-03-11">
  <defs
     id="defs1716" />
  <sodipodi:namedview
     id="base"
     pagecolor="#ffffff"
     bordercolor="#666666"
     borderopacity="1.0"
     inkscape:pageopacity="0.0"
     inkscape:pageshadow="2"
     inkscape:zoom="0.35355339"
     inkscape:cx="-51.457295"
     inkscape:cy="356.51353"
     inkscape:document-units="mm"
     inkscape:current-layer="layer1"
     showgrid="false"
     inkscape:snap-global="true"
     fit-margin-top="0"
     fit-margin-left="0"
     fit-margin-right="0"
     fit-margin-bottom="0"
     inkscape:window-width="1366"
     inkscape:window-height="711"
     inkscape:window-x="0"
     inkscape:window-y="0"
     inkscape:window-maximized="1" />
  <metadata
     id="metadata1719">
    <rdf:RDF>
      <cc:Work
         rdf:about="">
        <dc:format>image/svg+xml</dc:format>
        <dc:type
           rdf:resource="http://purl.org/dc/dcmitype/StillImage" />
        <dc:title></dc:title>
      </cc:Work>
    </rdf:RDF>
  </metadata>
  <g
     inkscape:label="Layer 1"
     inkscape:groupmode="layer"
     id="layer1"
     transform="translate(63.500004,15.208339)">
    <path
       style="fill:#00ff00;fill-opacity:1;stroke:none;stroke-width:0.26458332px;stroke-linecap:butt;stroke-linejoin:miter;stroke-opacity:1"
       d="m -12.722029,247.23441 2.619241,-26.56659 4.8643053,-7.85772 1.8708867,-20.20558 0.7483547,-5.98684 5.6126598,4.11595 6.3610148,5.98684 19.0830437,5.23848 c 0,0 20.205576,4.49013 22.076463,4.49013 1.870887,0 34.424315,-4.11595 34.424315,-4.11595 0,0 9.72861,-2.24506 11.225321,-2.61924 1.496708,-0.37418 19.083044,-4.86431 19.083044,-4.86431 l 11.97367,-4.8643 5.98684,2.61924 c 0,0 0.37418,8.98026 0.37418,10.47697 0,1.49671 1.49671,10.85114 1.49671,10.85114 l 4.11595,1.12253 1.12253,11.97368 1.49671,25.44405 -156.780303,2.24507 z"
       id="path2311"
       inkscape:connector-curvature="0" />
    <path
       style="opacity:1;fill:#000000;stroke:#000000;stroke-width:0.26499999;stroke-linecap:butt;stroke-linejoin:miter;stroke-miterlimit:4;stroke-dasharray:none;stroke-opacity:1"
       d="m -18.331845,249.75297 v -26.29296 h 6.401972 v -19.41853 h 6.6145828 v -12.8134 h -6.5782038 v -6.44788 h -6.280834 v -12.92916 h -6.698442 v -12.71201 h -6.314244 v -38.89015 h 6.382327 v -13.13467 h 6.530133 V 94.47563 h 6.344681 v -6.756324 h 6.5909595 V 81.459077 H 1.1811756 V 68.70238 H 7.3232885 V 49.331099 h 6.4728425 v -6.425594 h 6.520089 v -6.66183 h 6.378349 v -6.331101 h 26.033108 v 6.520088 h 12.85119 v 6.527651 h 6.45027 V 30.03115 h 6.614921 v -6.581512 h 6.347651 V 16.968352 H 117.2645 v 6.347651 h 6.41447 v 6.648329 h 6.48129 v 6.481286 h 6.34765 v 19.310223 h 6.34765 V 100.9578 h 6.68174 v 12.77099 h 6.37788 v 12.89844 h 6.18936 v 38.74253 h -6.28641 v 13.0962 h -6.23406 v 6.51134 h -6.56733 v 6.14212 h -6.56734 v 12.70945 h 6.3311 v 13.41815 h 6.61459 v 32.41146 h -12.7567 v -32.60045 h -6.3311 v -19.37128 h -12.94568 v 6.52009 H 91.375742 v 6.70908 H 26.552826 v -6.99256 H 7.1815475 v -6.3311 h -6.142113 v 25.79687 h -6.4255952 v 26.55283 z"
       id="path1735"
       inkscape:connector-curvature="0" />
    <path
       style="opacity:1;fill:#00ff00;fill-opacity:1;stroke:#000000;stroke-width:0.26499999;stroke-linecap:butt;stroke-linejoin:miter;stroke-miterlimit:4;stroke-dasharray:none;stroke-opacity:1"
       d="m 91.281249,197.78125 v -6.80357 h 25.891371 v -6.23661 h 13.04018 v -6.61458 h 6.04761 v -6.23661 h 6.4256 V 158.8497 h 6.99256 V 126.91071 H 142.875 v -13.04018 h -6.26023 v -6.6653 h -6.4211 V 55.37872 h -6.87894 V 43.094494 h -6.23661 v -6.709079 h -6.14211 V 29.865328 H 91.186756 v 6.449218 H 84.83203 v 13.111049 l -6.400784,0 0.11693,32.316964 h 6.685455 V 114.05952 H 78.560535 V 81.54735 H 72.012433 V 68.618186 H 65.597965 V 55.655617 h -6.598219 v -6.247426 h -6.34765 V 42.993722 H 33.375282 v 6.414469 h -6.681737 v 6.414468 H 20.41271 v 12.795527 h -6.38106 v 45.302184 h 6.347651 v 13.16303 h 6.414468 v 6.01356 h -6.61492 v -6.08038 h -6.214016 v -6.78197 H 7.2496859 v -6.31424 H 1.0690781 v -13.0962 h -6.3476513 v 13.22984 h -6.6149208 v 12.96257 h -6.347651 v 25.49083 h 6.414469 v 12.89575 h 6.4812855 v 13.09621 h 6.28083383 v 6.41447 H 7.3499119 v 6.21402 H 26.793769 v 6.68173 z"
       id="path2280"
       inkscape:connector-curvature="0"
       sodipodi:nodetypes="ccccccccccccccccccccccccccccccccccccccccccccccccccccccccccccccccccccccccccccccc" />
    <path
       style="fill:#ffffff;stroke:none;stroke-width:0.26458332px;stroke-linecap:butt;stroke-linejoin:miter;stroke-opacity:1"
       d="m 26.793769,133.09696 h 32.339613 v -6.34765 h 6.214017 v -6.48129 H 78.430058 V 81.55357 l -6.417625,-0.0062 V 68.618186 l -13.048149,-0.0103 v 6.567337 H 46.160343 v 6.614583 h -6.567337 v 6.142112 H 26.647322 v 6.850819 H 14.174107 v 18.993303 l 6.205194,0.14433 v 13.16303 l 6.362515,-0.0782 z"
       id="path2303"
       inkscape:connector-curvature="0"
       sodipodi:nodetypes="ccccccccccccccccccccccc" />
    <rect
       style="opacity:1;fill:#000000;fill-opacity:1;stroke:none;stroke-width:0.26499999;stroke-linecap:butt;stroke-linejoin:round;stroke-miterlimit:4;stroke-dasharray:none;stroke-dashoffset:0;stroke-opacity:1"
       id="rect2297"
       width="19.243404"
       height="32.473251"
       x="46.371262"
       y="87.861595" />
    <path
       style="fill:#ffffff;stroke:none;stroke-width:0.26422426px;stroke-linecap:butt;stroke-linejoin:miter;stroke-opacity:1"
       d="m 85.355367,114.05952 h 25.444193 v -6.99256 h 12.76922 v -6.23661 h 6.54952 V 62.135043 H 97.794752 v -6.52009 H 78.523129 l 0.164915,26.127606 h 6.667323 z"
       id="path2305"
       inkscape:connector-curvature="0"
       sodipodi:nodetypes="ccccccccccccc" />
    <rect
       style="opacity:1;fill:#000000;fill-opacity:1;stroke:none;stroke-width:0.26499999;stroke-linecap:butt;stroke-linejoin:round;stroke-miterlimit:4;stroke-dasharray:none;stroke-dashoffset:0;stroke-opacity:1"
       id="rect2299"
       width="19.510675"
       height="32.874149"
       x="97.687012"
       y="68.484558" />
    <path
       style="fill:#000000;stroke:#000000;stroke-width:0.26458332px;stroke-linecap:butt;stroke-linejoin:miter;stroke-opacity:1"
       d="m 84.991709,165.36976 v 6.46458 h 32.222681 v -6.36436 h 6.24743 v -6.38106 h 6.61492 v -12.92505 h -6.5494 v 12.99294 h -6.37835 v 6.18936 z"
       id="path2301"
       inkscape:connector-curvature="0" />
    <path
       style="fill:#000000;fill-opacity:1;stroke:#000000;stroke-width:0.26458332px;stroke-linecap:butt;stroke-linejoin:miter;stroke-opacity:1"
       d="m 26.593318,242.74428 v -19.37704 h -6.314243 v 19.67772 h -6.347651 v 6.94901 h 6.514695 v -6.94901 h 6.214017 z"
       id="path2307"
       inkscape:connector-curvature="0" />
    <path
       style="fill:#fdff00;fill-opacity:1;stroke:none;stroke-width:0.26458332px;stroke-linecap:butt;stroke-linejoin:miter;stroke-opacity:1"
       d="m 72.004464,250.22544 v -7.18155 h 6.567337 v -12.99293 h 6.47284 v -6.42559 h 25.749629 v 6.47284 h 6.3311 v 6.37835 h 6.4256 v 13.55989 z"
       id="path2309"
       inkscape:connector-curvature="0" />
  </g>
</svg>
